Bowler,W,team,opponent_team
Deepak Chahar,0,csk,rcb
Harbhajan Singh,3,csk,rcb
Suresh Raina,0,csk,rcb
Imran Tahir,3,csk,rcb
Ravindra Jadeja,2,csk,rcb
Dwayne Bravo,1,csk,rcb
Yuzvendra Chahal,1,rcb,csk
Navdeep Saini,0,rcb,csk
Moeen Ali,1,rcb,csk
Umesh Yadav,0,rcb,csk
Mohammed Siraj,1,rcb,csk
Shivam Dube,0,rcb,csk
Prasidh Krishna,0,kkr,srh
Piyush Chawla,1,kkr,srh
Lockie Ferguson,0,kkr,srh
Sunil Narine,0,kkr,srh
Kuldeep Yadav,0,kkr,srh
Andre Russell,2,kkr,srh
Nitish Rana,0,kkr,srh
Bhuvneshwar Kumar,0,srh,kkr
Shakib Al Hasan,1,srh,kkr
Sandeep Sharma,1,srh,kkr
Siddarth Kaul,1,srh,kkr
Rashid Khan,1,srh,kkr
Rasikh Salam,0,mi,dc
Mitchell McClenaghan,3,mi,dc
Jasprit Bumrah,1,mi,dc
Hardik Pandya,1,mi,dc
Krunal Pandya,0,mi,dc
Ben Cutting,1,mi,dc
Trent Boult,1,dc,mi
Ishant Sharma,2,dc,mi
Kagiso Rabada,2,dc,mi
Rahul Tewatia,1,dc,mi
Keemo Paul,1,dc,mi
Axar Patel,1,dc,mi
Dhawal Kulkarni,1,rr,kxip
Krishnappa Gowtham,1,rr,kxip
Jofra Archer,0,rr,kxip
Ben Stokes,2,rr,kxip
Jaydev Unadkat,0,rr,kxip
Shreyas Gopal,0,rr,kxip
Sam Curran,2,kxip,rr
Mujeeb Ur Rahman,2,kxip,rr
Mohammed Shami,0,kxip,rr
Ravichandran Ashwin,1,kxip,rr
Ankit Rajpoot,2,kxip,rr
Deepak Chahar,1,csk,dc
Shardul Thakur,0,csk,dc
Harbhajan Singh,0,csk,dc
Ravindra Jadeja,1,csk,dc
Imran Tahir,1,csk,dc
Dwayne Bravo,3,csk,dc
Ishant Sharma,1,dc,csk
Axar Patel,0,dc,csk
Kagiso Rabada,1,dc,csk
Amit Mishra,2,dc,csk
Rahul Tewatia,0,dc,csk
Keemo Paul,0,dc,csk
Mohammed Shami,1,kxip,kkr
Varun Chakravarthy,1,kxip,kkr
Hardus Viljoen,1,kxip,kkr
Andrew Tye,1,kxip,kkr
Ravichandran Ashwin,0,kxip,kkr
Mandeep Singh,0,kxip,kkr
Prasidh Krishna,0,kkr,kxip
Lockie Ferguson,1,kkr,kxip
Andre Russell,2,kkr,kxip
Kuldeep Yadav,0,kkr,kxip
Sunil Narine,0,kkr,kxip
Piyush Chawla,1,kkr,kxip
Umesh Yadav,2,rcb,mi
Navdeep Saini,0,rcb,mi
Mohammed Siraj,2,rcb,mi
Yuzvendra Chahal,4,rcb,mi
Colin de Grandhomme,0,rcb,mi
Moeen Ali,0,rcb,mi
Mitchell McClenaghan,0,mi,rcb
Lasith Malinga,0,mi,rcb
Jasprit Bumrah,3,mi,rcb
Hardik Pandya,0,mi,rcb
Krunal Pandya,0,mi,rcb
Mayank Markande,1,mi,rcb
Bhuvneshwar Kumar,0,srh,rr
Sandeep Sharma,0,srh,rr
Rashid Khan,1,srh,rr
Siddarth Kaul,0,srh,rr
Shahbaz Nadeem,1,srh,rr
Vijay Shankar,0,srh,rr
Dhawal Kulkarni,0,rr,srh
Krishnappa Gowtham,0,rr,srh
Jofra Archer,0,rr,srh
Ben Stokes,1,rr,srh
Shreyas Gopal,3,rr,srh
Jaydev Unadkat,1,rr,srh
Ravichandran Ashwin,0,kxip,mi
Mohammed Shami,2,kxip,mi
Hardus Viljoen,2,kxip,mi
Andrew Tye,1,kxip,mi
Murugan Ashwin,2,kxip,mi
Mitchell McClenaghan,0,mi,kxip
Lasith Malinga,0,mi,kxip
Jasprit Bumrah,0,mi,kxip
Hardik Pandya,0,mi,kxip
Krunal Pandya,2,mi,kxip
Mayank Markande,0,mi,kxip
Kagiso Rabada,1,dc,kkr
Sandeep Lamichhane,1,dc,kkr
Chris Morris,1,dc,kkr
Harshal Patel,2,dc,kkr
Amit Mishra,1,dc,kkr
Prasidh Krishna,0,kkr,dc
Lockie Ferguson,1,kkr,dc
Piyush Chawla,1,kkr,dc
Andre Russell,1,kkr,dc
Kuldeep Yadav,2,kkr,dc
Nitish Rana,0,kkr,dc
Moeen Ali,0,rcb,srh
Umesh Yadav,0,rcb,srh
Yuzvendra Chahal,1,rcb,srh
Mohammed Siraj,0,rcb,srh
Prayas Barman,0,rcb,srh
Colin de Grandhomme,0,rcb,srh
Bhuvneshwar Kumar,0,srh,rcb
Mohammad Nabi,4,srh,rcb
Sandeep Sharma,3,srh,rcb
Siddarth Kaul,0,srh,rcb
Rashid Khan,0,srh,rcb
Vijay Shankar,0,srh,rcb
Dhawal Kulkarni,1,rr,csk
Jofra Archer,2,rr,csk
Ben Stokes,1,rr,csk
Shreyas Gopal,0,rr,csk
Krishnappa Gowtham,0,rr,csk
Jaydev Unadkat,1,rr,csk
Deepak Chahar,2,csk,rr
Shardul Thakur,2,csk,rr
Mitchell Santner,0,csk,rr
Ravindra Jadeja,0,csk,rr
Imran Tahir,2,csk,rr
Dwayne Bravo,2,csk,rr
Kagiso Rabada,2,dc,kxip
Chris Morris,3,dc,kxip
Avesh Khan,0,dc,kxip
Sandeep Lamichhane,2,dc,kxip
Harshal Patel,0,dc,kxip
Hanuma Vihari,0,dc,kxip
Ravichandran Ashwin,2,kxip,dc
Sam Curran,4,kxip,dc
Mohammed Shami,2,kxip,dc
Hardus Viljoen,1,kxip,dc
Mujeeb Ur Rahman,0,kxip,dc
Murugan Ashwin,0,kxip,dc
Krishnappa Gowtham,0,rr,rcb
Dhawal Kulkarni,0,rr,rcb
Jofra Archer,1,rr,rcb
Shreyas Gopal,3,rr,rcb
Varun Aaron,0,rr,rcb
Stuart Binny,0,rr,rcb
Ben Stokes,0,rr,rcb
Umesh Yadav,0,rcb,rr
Navdeep Saini,0,rcb,rr
Mohammed Siraj,1,rcb,rr
Yuzvendra Chahal,2,rcb,rr
Marcus Stoinis,0,rcb,rr
Moeen Ali,0,rcb,rr
Deepak Chahar,1,csk,mi
Shardul Thakur,0,csk,mi
Mohit Sharma,1,csk,mi
Imran Tahir,1,csk,mi
Ravindra Jadeja,1,csk,mi
Dwayne Bravo,1,csk,mi
Jason Behrendorff,2,mi,csk
Lasith Malinga,3,mi,csk
Hardik Pandya,3,mi,csk
Jasprit Bumrah,0,mi,csk
Rahul Chahar,0,mi,csk
Krunal Pandya,0,mi,csk
Bhuvneshwar Kumar,2,srh,dc
Mohammad Nabi,2,srh,dc
Siddarth Kaul,2,srh,dc
Rashid Khan,1,srh,dc
Sandeep Sharma,1,srh,dc
Sandeep Lamichhane,1,dc,srh
Axar Patel,1,dc,srh
Chris Morris,0,dc,srh
Kagiso Rabada,1,dc,srh
Rahul Tewatia,1,dc,srh
Ishant Sharma,1,dc,srh
Prasidh Krishna,0,kkr,rcb
Piyush Chawla,0,kkr,rcb
Sunil Narine,1,kkr,rcb
Lockie Ferguson,0,kkr,rcb
Kuldeep Yadav,1,kkr,rcb
Nitish Rana,1,kkr,rcb
Andre Russell,0,kkr,rcb
Tim Southee,0,rcb,kkr
Navdeep Saini,2,rcb,kkr
Yuzvendra Chahal,1,rcb,kkr
Mohammed Siraj,0,rcb,kkr
Pawan Negi,2,rcb,kkr
Marcus Stoinis,0,rcb,kkr
Mohammed Shami,0,kxip,csk
Ravichandran Ashwin,3,kxip,csk
Sam Curran,0,kxip,csk
Andrew Tye,0,kxip,csk
Murugan Ashwin,0,kxip,csk
Deepak Chahar,1,csk,kxip
Harbhajan Singh,2,csk,kxip
Scott Kuggeleijn,2,csk,kxip
Ravindra Jadeja,0,csk,kxip
Imran Tahir,0,csk,kxip
Bhuvneshwar Kumar,1,srh,mi
Sandeep Sharma,1,srh,mi
Mohammad Nabi,1,srh,mi
Yusuf Pathan,0,srh,mi
Siddarth Kaul,2,srh,mi
Rashid Khan,1,srh,mi
Jason Behrendorff,1,mi,srh
Jasprit Bumrah,1,mi,srh
Rahul Chahar,2,mi,srh
Alzarri Joseph,6,mi,srh
Krunal Pandya,0,mi,srh
Hardik Pandya,0,mi,srh
Ishant Sharma,0,dc,rcb
Chris Morris,2,dc,rcb
Kagiso Rabada,4,dc,rcb
Axar Patel,1,dc,rcb
Sandeep Lamichhane,1,dc,rcb
Tim Southee,1,rcb,dc
Navdeep Saini,2,rcb,dc
Yuzvendra Chahal,0,rcb,dc
Pawan Negi,1,rcb,dc
Mohammed Siraj,1,rcb,dc
Moeen Ali,1,rcb,dc
Piyush Chawla,0,kkr,rr
Prasidh Krishna,1,kkr,rr
Sunil Narine,0,kkr,rr
Kuldeep Yadav,0,kkr,rr
Harry Gurney,2,kkr,rr
Dhawal Kulkarni,0,rr,kkr
Krishnappa Gowtham,0,rr,kkr
Jofra Archer,0,rr,kkr
Shreyas Gopal,2,rr,kkr
Sudhesan Midhun,0,rr,kkr
Ben Stokes,0,rr,kkr
Ankit Rajpoot,0,kxip,srh
Mujeeb Ur Rahman,1,kxip,srh
Mohammed Shami,1,kxip,srh
Ravichandran Ashwin,1,kxip,srh
Sam Curran,0,kxip,srh
Bhuvneshwar Kumar,0,srh,kxip
Sandeep Sharma,2,srh,kxip
Rashid Khan,1,srh,kxip
Mohammad Nabi,0,srh,kxip
Siddarth Kaul,1,srh,kxip
Deepak Chahar,3,csk,kkr
Harbhajan Singh,2,csk,kkr
Ravindra Jadeja,1,csk,kkr
Scott Kuggeleijn,0,csk,kkr
Imran Tahir,2,csk,kkr
Piyush Chawla,1,kkr,csk
Prasidh Krishna,0,kkr,csk
Sunil Narine,2,kkr,csk
Kuldeep Yadav,0,kkr,csk
Harry Gurney,0,kkr,csk
Jason Behrendorff,1,mi,kxip
Jasprit Bumrah,1,mi,kxip
Alzarri Joseph,0,mi,kxip
Rahul Chahar,0,mi,kxip
Hardik Pandya,2,mi,kxip
Krunal Pandya,0,mi,kxip
Ankit Rajpoot,1,kxip,mi
Mohammed Shami,3,kxip,mi
Hardus Viljoen,0,kxip,mi
Ravichandran Ashwin,1,kxip,mi
Sam Curran,1,kxip,mi
Deepak Chahar,2,csk,rr
Mitchell Santner,1,csk,rr
Shardul Thakur,2,csk,rr
Ravindra Jadeja,2,csk,rr
Imran Tahir,0,csk,rr
Dhawal Kulkarni,1,rr,csk
Jaydev Unadkat,1,rr,csk
Jofra Archer,1,rr,csk
Riyan Parag,0,rr,csk
Shreyas Gopal,0,rr,csk
Ben Stokes,2,rr,csk
Ishant Sharma,1,dc,kkr
Chris Morris,2,dc,kkr
Kagiso Rabada,2,dc,kkr
Axar Patel,0,dc,kkr
Keemo Paul,2,dc,kkr
Prasidh Krishna,1,kkr,dc
Lockie Ferguson,0,kkr,dc
Andre Russell,1,kkr,dc
Kuldeep Yadav,0,kkr,dc
Piyush Chawla,0,kkr,dc
Carlos Brathwaite,0,kkr,dc
Nitish Rana,1,kkr,dc
Krishnappa Gowtham,0,rr,mi
Dhawal Kulkarni,1,rr,mi
Jofra Archer,3,rr,mi
Jaydev Unadkat,1,rr,mi
Shreyas Gopal,0,rr,mi
Liam Livingstone,0,rr,mi
Jason Behrendorff,0,mi,rr
Alzarri Joseph,0,mi,rr
Rahul Chahar,1,mi,rr
Jasprit Bumrah,2,mi,rr
Krunal Pandya,3,mi,rr
Hardik Pandya,0,mi,rr
Umesh Yadav,0,rcb,kxip
Navdeep Saini,0,rcb,kxip
Mohammed Siraj,1,rcb,kxip
Yuzvendra Chahal,2,rcb,kxip
Moeen Ali,1,rcb,kxip
Sam Curran,0,kxip,rcb
Mohammed Shami,1,kxip,rcb
Ravichandran Ashwin,1,kxip,rcb
Murugan Ashwin,0,kxip,rcb
Andrew Tye,0,kxip,rcb
Sarfaraz Khan,0,kxip,rcb
Deepak Chahar,0,csk,kkr
Shardul Thakur,2,csk,kkr
Mitchell Santner,1,csk,kkr
Ravindra Jadeja,0,csk,kkr
Imran Tahir,4,csk,kkr
Prasidh Krishna,0,kkr,csk
Harry Gurney,1,kkr,csk
Andre Russell,0,kkr,csk
Sunil Narine,2,kkr,csk
Kuldeep Yadav,0,kkr,csk
Piyush Chawla,2,kkr,csk
Bhuvneshwar Kumar,2,srh,dc
K Khaleel Ahmed,3,srh,dc
Sandeep Sharma,0,srh,dc
Deepak Hooda,0,srh,dc
Abhishek Sharma,1,srh,dc
Vijay Shankar,0,srh,dc
Rashid Khan,1,srh,dc
Ishant Sharma,0,dc,srh
Kagiso Rabada,4,dc,srh
Chris Morris,3,dc,srh
Axar Patel,0,dc,srh
Keemo Paul,3,dc,srh
Amit Mishra,0,dc,srh
Jason Behrendorff,1,mi,rcb
Lasith Malinga,4,mi,rcb
Jasprit Bumrah,0,mi,rcb
Hardik Pandya,1,mi,rcb
Rahul Chahar,0,mi,rcb
Krunal Pandya,0,mi,rcb
Umesh Yadav,0,rcb,mi
Navdeep Saini,0,rcb,mi
Mohammed Siraj,1,rcb,mi
Yuzvendra Chahal,2,rcb,mi
Pawan Negi,0,rcb,mi
Moeen Ali,2,rcb,mi
Dhawal Kulkarni,1,rr,kxip
Jaydev Unadkat,1,rr,kxip
Jofra Archer,3,rr,kxip
Ish Sodhi,1,rr,kxip
Shreyas Gopal,0,rr,kxip
Arshdeep Singh,2,kxip,rr
Mujeeb Ur Rahman,0,kxip,rr
Murugan Ashwin,1,kxip,rr
Ravichandran Ashwin,2,kxip,rr
Mohammed Shami,2,kxip,rr
Mandeep Singh,0,kxip,rr
Bhuvneshwar Kumar,0,srh,csk
K Khaleel Ahmed,1,srh,csk
Sandeep Sharma,0,srh,csk
Shahbaz Nadeem,1,srh,csk
Rashid Khan,2,srh,csk
Vijay Shankar,1,srh,csk
Deepak Chahar,1,csk,srh
Shardul Thakur,0,csk,srh
Imran Tahir,2,csk,srh
Ravindra Jadeja,0,csk,srh
Karn Sharma,1,csk,srh
Ishant Sharma,0,dc,mi
Kagiso Rabada,2,dc,mi
Chris Morris,0,dc,mi
Keemo Paul,0,dc,mi
Amit Mishra,1,dc,mi
Axar Patel,1,dc,mi
Hardik Pandya,1,mi,dc
Rahul Chahar,3,mi,dc
Lasith Malinga,1,mi,dc
Jayant Yadav,0,mi,dc
Jasprit Bumrah,2,mi,dc
Krunal Pandya,1,mi,dc
Harry Gurney,1,kkr,rcb
Sunil Narine,1,kkr,rcb
Prasidh Krishna,0,kkr,rcb
Andre Russell,1,kkr,rcb
Kuldeep Yadav,1,kkr,rcb
Piyush Chawla,0,kkr,rcb
Dale Steyn,2,rcb,kkr
Navdeep Saini,1,rcb,kkr
Mohammed Siraj,0,rcb,kkr
Marcus Stoinis,1,rcb,kkr
Yuzvendra Chahal,0,rcb,kkr
Moeen Ali,0,rcb,kkr
Stuart Binny,1,rr,mi
Dhawal Kulkarni,0,rr,mi
Shreyas Gopal,2,rr,mi
Jofra Archer,1,rr,mi
Jaydev Unadkat,1,rr,mi
Riyan Parag,0,rr,mi
Hardik Pandya,0,mi,rr
Krunal Pandya,0,mi,rr
Lasith Malinga,0,mi,rr
Rahul Chahar,3,mi,rr
Jasprit Bumrah,1,mi,rr
Mayank Markande,0,mi,rr
Ishant Sharma,0,dc,kxip
Sandeep Lamichhane,3,dc,kxip
Kagiso Rabada,2,dc,kxip
Amit Mishra,0,dc,kxip
Axar Patel,2,dc,kxip
Sherfane Rutherford,0,dc,kxip
Mohammed Shami,1,kxip,dc
Sam Curran,0,kxip,dc
Hardus Viljoen,2,kxip,dc
Harpreet Brar,0,kxip,dc
Ravichandran Ashwin,0,kxip,dc
Murugan Ashwin,0,kxip,dc
Bhuvneshwar Kumar,2,srh,kkr
Shahbaz Nadeem,0,srh,kkr
K Khaleel Ahmed,3,srh,kkr
Sandeep Sharma,1,srh,kkr
Rashid Khan,1,srh,kkr
Harry Gurney,0,kkr,srh
Yarra Prithviraj,1,kkr,srh
Piyush Chawla,0,kkr,srh
Sunil Narine,0,kkr,srh
KC Cariappa,0,kkr,srh
Andre Russell,0,kkr,srh
Deepak Chahar,2,csk,rcb
Shardul Thakur,0,csk,rcb
Ravindra Jadeja,2,csk,rcb
Dwayne Bravo,2,csk,rcb
Imran Tahir,1,csk,rcb
Dale Steyn,2,rcb,csk
Navdeep Saini,1,rcb,csk
Umesh Yadav,2,rcb,csk
Pawan Negi,0,rcb,csk
Marcus Stoinis,0,rcb,csk
Yuzvendra Chahal,1,rcb,csk
Ishant Sharma,1,dc,rr
Kagiso Rabada,2,dc,rr
Axar Patel,1,dc,rr
Amit Mishra,0,dc,rr
Chris Morris,1,dc,rr
Sherfane Rutherford,0,dc,rr
Stuart Binny,0,rr,dc
Dhawal Kulkarni,1,rr,dc
Jaydev Unadkat,0,rr,dc
Shreyas Gopal,2,rr,dc
Jofra Archer,0,rr,dc
Riyan Parag,1,rr,dc
Deepak Chahar,1,csk,srh
Harbhajan Singh,2,csk,srh
Ravindra Jadeja,0,csk,srh
Dwayne Bravo,0,csk,srh
Imran Tahir,0,csk,srh
Bhuvneshwar Kumar,1,srh,csk
K Khaleel Ahmed,0,srh,csk
Shakib Al Hasan,0,srh,csk
Sandeep Sharma,1,srh,csk
Rashid Khan,1,srh,csk
Ankit Rajpoot,0,kxip,rcb
Mohammed Shami,1,kxip,rcb
Murugan Ashwin,1,kxip,rcb
Ravichandran Ashwin,1,kxip,rcb
Hardus Viljoen,1,kxip,rcb
Tim Southee,0,rcb,kxip
Umesh Yadav,3,rcb,kxip
Navdeep Saini,2,rcb,kxip
Yuzvendra Chahal,0,rcb,kxip
Marcus Stoinis,1,rcb,kxip
Moeen Ali,1,rcb,kxip
Washington Sundar,0,rcb,kxip
Varun Aaron,2,rr,kkr
Oshane Thomas,1,rr,kkr
Jofra Archer,0,rr,kkr
Shreyas Gopal,1,rr,kkr
Riyan Parag,0,rr,kkr
Jaydev Unadkat,1,rr,kkr
Carlos Brathwaite,0,kkr,rr
Prasidh Krishna,1,kkr,rr
Andre Russell,1,kkr,rr
Sunil Narine,2,kkr,rr
Yarra Prithviraj,0,kkr,rr
Piyush Chawla,3,kkr,rr
Nitish Rana,0,kkr,rr
Deepak Chahar,1,csk,mi
Harbhajan Singh,0,csk,mi
Imran Tahir,1,csk,mi
Dwayne Bravo,0,csk,mi
Mitchell Santner,2,csk,mi
Lasith Malinga,4,mi,csk
Krunal Pandya,2,mi,csk
Hardik Pandya,1,mi,csk
Jasprit Bumrah,2,mi,csk
Rahul Chahar,0,mi,csk
Anukul Roy,1,mi,csk
Varun Aaron,2,rr,srh
Oshane Thomas,2,rr,srh
Shreyas Gopal,2,rr,srh
Jaydev Unadkat,2,rr,srh
Riyan Parag,0,rr,srh
Stuart Binny,0,rr,srh
Bhuvneshwar Kumar,0,srh,rr
Shakib Al Hasan,1,srh,rr
Rashid Khan,1,srh,rr
K Khaleel Ahmed,1,srh,rr
Siddarth Kaul,0,srh,rr
Umesh Yadav,1,rcb,dc
Washington Sundar,1,rcb,dc
Yuzvendra Chahal,2,rcb,dc
Navdeep Saini,1,rcb,dc
Marcus Stoinis,0,rcb,dc
Shivam Dube,0,rcb,dc
Ishant Sharma,1,dc,rcb
Axar Patel,1,dc,rcb
Sandeep Lamichhane,0,dc,rcb
Kagiso Rabada,2,dc,rcb
Amit Mishra,2,dc,rcb
Sherfane Rutherford,1,dc,rcb
Barinder Sran,0,mi,kkr
Krunal Pandya,0,mi,kkr
Lasith Malinga,0,mi,kkr
Jasprit Bumrah,0,mi,kkr
Rahul Chahar,1,mi,kkr
Hardik Pandya,1,mi,kkr
Sandeep Warrier,0,kkr,mi
Sunil Narine,2,kkr,mi
Harry Gurney,2,kkr,mi
Andre Russell,2,kkr,mi
Piyush Chawla,1,kkr,mi
Arshdeep Singh,1,kxip,srh
Mujeeb Ur Rahman,0,kxip,srh
Mohammed Shami,2,kxip,srh
Ravichandran Ashwin,2,kxip,srh
Murugan Ashwin,1,kxip,srh
K Khaleel Ahmed,3,srh,kxip
Bhuvneshwar Kumar,0,srh,kxip
Sandeep Sharma,2,srh,kxip
Rashid Khan,3,srh,kxip
Abhishek Sharma,0,srh,kxip
Mohammad Nabi,0,srh,kxip
Varun Aaron,0,rr,rcb
Shreyas Gopal,3,rr,rcb
Riyan Parag,1,rr,rcb
Jaydev Unadkat,1,rr,rcb
Oshane Thomas,2,rr,rcb
Umesh Yadav,0,rcb,rr
Navdeep Saini,0,rcb,rr
Kulwant Khejroliya,0,rcb,rr
Yuzvendra Chahal,1,rcb,rr
Varun Aaron,0,rr,rcb
Shreyas Gopal,3,rr,rcb
Riyan Parag,1,rr,rcb
Jaydev Unadkat,1,rr,rcb
Oshane Thomas,2,rr,rcb
Umesh Yadav,0,rcb,rr
Navdeep Saini,0,rcb,rr
Kulwant Khejroliya,0,rcb,rr
Yuzvendra Chahal,1,rcb,rr
Varun Aaron,0,rr,rcb
Shreyas Gopal,3,rr,rcb
Riyan Parag,1,rr,rcb
Jaydev Unadkat,1,rr,rcb
Oshane Thomas,2,rr,rcb
Umesh Yadav,0,rcb,rr
Navdeep Saini,0,rcb,rr
Kulwant Khejroliya,0,rcb,rr
Yuzvendra Chahal,1,rcb,rr
Varun Aaron,0,rr,rcb
Shreyas Gopal,3,rr,rcb
Riyan Parag,1,rr,rcb
Jaydev Unadkat,1,rr,rcb
Oshane Thomas,2,rr,rcb
Umesh Yadav,0,rcb,rr
Navdeep Saini,0,rcb,rr
Kulwant Khejroliya,0,rcb,rr
Yuzvendra Chahal,1,rcb,rr
Varun Aaron,0,rr,rcb
Shreyas Gopal,3,rr,rcb
Riyan Parag,1,rr,rcb
Jaydev Unadkat,1,rr,rcb
Oshane Thomas,2,rr,rcb
Umesh Yadav,0,rcb,rr
Navdeep Saini,0,rcb,rr
Kulwant Khejroliya,0,rcb,rr
Yuzvendra Chahal,1,rcb,rr
